{
    "fluentMethods": true,
    "relationships": [],
    "fields": [
        {
            "fieldName": "classeEuro",
            "fieldType": "String",
            "fieldValidateRules": [
                "maxlength"
            ],
            "fieldValidateRulesMaxlength": 255
        },
        {
            "fieldName": "tipiPossesso",
            "fieldType": "String",
            "fieldValidateRules": [
                "maxlength"
            ],
            "fieldValidateRulesMaxlength": 1000
        },
        {
            "fieldName": "dataVariazione",
            "fieldType": "Instant"
        },
        {
            "fieldName": "dataFineVariazione",
            "fieldType": "Instant"
        },
        {
            "fieldName": "veicoloDmlUniqueIdentifier",
            "fieldType": "String",
            "fieldValidateRules": [
                "maxlength"
            ],
            "fieldValidateRulesMaxlength": 255
        },
        {
            "fieldName": "dmlRevisionTimestamp",
            "fieldType": "Instant"
        }
    ],
    "changelogDate": "20180615084031",
    "entityTableName": "storico_classe_euro",
    "dto": "mapstruct",
    "pagination": "pagination",
    "service": "serviceImpl",
    "microserviceName": "faiconsumi"
}