{
    "fluentMethods": true,
    "relationships": [],
    "fields": [
        {
            "fieldName": "dmlRevisionTimestamp",
            "fieldType": "Instant"
        },
        {
            "fieldName": "dataVariazione",
            "fieldType": "Instant"
        },
        {
            "fieldName": "dataFineVariazione",
            "fieldType": "Instant"
        },
        {
            "fieldName": "contrattoNumero",
            "fieldType": "String",
            "fieldValidateRules": [
                "maxlength"
            ],
            "fieldValidateRulesMaxlength": 255
        },
        {
            "fieldName": "ragioneSociale",
            "fieldType": "String",
            "fieldValidateRules": [
                "maxlength"
            ],
            "fieldValidateRulesMaxlength": 1000
        },
        {
            "fieldName": "contrattoDmlUniqueIdentifier",
            "fieldType": "String",
            "fieldValidateRules": [
                "maxlength"
            ],
            "fieldValidateRulesMaxlength": 255
        }
    ],
    "changelogDate": "20180615084032",
    "entityTableName": "storico_contratto_azienda",
    "dto": "mapstruct",
    "pagination": "pagination",
    "service": "serviceImpl",
    "microserviceName": "faiconsumi"
}